{
  "name": "Heihachi",
  "full_name": "Heihachi Mishima",
  "jp_name": "三島 平八",
  "version": "3.03",
  "edited": "201912280209",
  "attack_list": [
    {
      "attack_command": "in rage d+1+2",
      "attack_name": "Rage Art",
      "jp_command": "in rage 2AP",
      "jp_name": "レイジアーツ",
      "property": "m",
      "damage": "55",
      "startup": "i20 pc8~17",
      "block": "-22",
      "hit": "Throw(KND)",
      "counter_hit": "Throw(KND)",
      "tag": "in rage d1+2 ra",
      "notes": "Rage art",
      "index": "1"
    },
    {
      "attack_command": "in rage b+2, 1+2",
      "attack_name": "Rage Drive 1",
      "jp_command": "in rage 2RP, AP",
      "jp_name": "レイジドライブ1",
      "property": "m, h",
      "damage": "20,21",
      "startup": "i20~",
      "block": "+9s~+10s",
      "hit": "BU",
      "counter_hit": "BU",
      "tag": "in rage b21+2 rd",
      "notes": "NC, Rage art",
      "index": "2"
    },
    {
      "attack_command": "Opponent midair in rage b+2, 1+2",
      "attack_name": "Rage Drive 1",
      "jp_command": "Opponent midair in rage 2RP, AP",
      "jp_name": "レイジドライブ1",
      "property": "m, h",
      "damage": "20,21",
      "startup": "i20~",
      "block": "+9s~+10s",
      "hit": "KND*",
      "counter_hit": "KND*",
      "tag": "opponent midair in rage b21+2 rd",
      "notes": "NC, Rage art, *Guaranteed followup",
      "index": "2a"
    },
    {
      "attack_command": "in rage 1, b+2, 1+2",
      "attack_name": "Rage Drive 2",
      "jp_command": "in rage LP, 4RP, AP",
      "jp_name": "レイジドライブ2",
      "property": "h, m, h",
      "damage": "20,21",
      "startup": "i10",
      "block": "+9~+10s",
      "hit": "BU",
      "counter_hit": "BU",
      "tag": "in rage 1b21+2 rd",
      "notes": "NC, NCC for all hits, Rage art",
      "index": "3"
    },
    {
      "attack_command": "Opponent midair in rage 1, b+2, 1+2",
      "attack_name": "Rage Drive 2",
      "jp_command": "Opponent midair in rage LP, 4RP, AP",
      "jp_name": "レイジドライブ2",
      "property": "h, m, h",
      "damage": "20,21",
      "startup": "i10",
      "block": "+9~+10s",
      "hit": "KND*",
      "counter_hit": "KND*",
      "tag": "in rage 1b21+2 rd",
      "notes": "Rage art, *Guaranteed followup",
      "index": "3a"
    },
    {
      "attack_command": "1",
      "attack_name": "Flash Punch Combo (1)",
      "jp_command": "LP",
      "jp_name": "リードジャブ",
      "property": "h",
      "damage": "7",
      "startup": "i10",
      "block": "+1",
      "hit": "+8",
      "counter_hit": "+8",
      "tag": "1",
      "notes": "S2: Hitbox expanded downward",
      "index": "4a"
    },
    {
      "attack_command": "1, 1",
      "attack_name": "Flash Punch Combo (2)",
      "jp_command": "LP, LP",
      "jp_name": "閃光烈拳(2)",
      "property": "h, h",
      "damage": "7,6",
      "startup": "i10",
      "block": "-1",
      "hit": "+8",
      "counter_hit": "+8",
      "tag": "11",
      "notes": "NC",
      "index": "4b"
    },
    {
      "attack_command": "1, 1, 2",
      "attack_name": "Flash Punch Combo",
      "jp_command": "LP, LP, RP",
      "jp_name": "閃光烈拳",
      "property": "h, h, m",
      "damage": "7,6,12",
      "startup": "i10",
      "block": "-17",
      "hit": "KND",
      "counter_hit": "KND",
      "tag": "112",
      "notes": "W!, BB!, NC all hits, Visually hit confirm",
      "index": "4"
    },
    {
      "attack_command": "1, 2",
      "attack_name": "Demon Slayer (2)",
      "jp_command": "LP, RP",
      "jp_name": "ワンツーパンチ",
      "property": "h, h",
      "damage": "7,8",
      "startup": "i10",
      "block": "-1",
      "hit": "+7",
      "counter_hit": "+7",
      "tag": "12",
      "notes": "NC",
      "index": "5a"
    },
    {
      "attack_command": "1, 2, 2",
      "attack_name": "Demon Slayer",
      "jp_command": "LP, RP, RP",
      "jp_name": "鬼哭連拳",
      "property": "h, h, h",
      "damage": "7,8,12",
      "startup": "i10",
      "block": "-12",
      "hit": "+4",
      "counter_hit": "+4",
      "tag": "122",
      "notes": "NC all hits",
      "index": "5"
    },
    {
      "attack_command": "1, 2, 2~1+2",
      "attack_name": "Demon Executioner",
      "jp_command": "LP, RP, RP:AP",
      "jp_name": "鬼哭剛掌破",
      "property": "h, h, m",
      "damage": "7,8,25",
      "startup": "i10",
      "block": "-6~-5",
      "hit": "KND*",
      "counter_hit": "KND*",
      "tag": "1221+2",
      "notes": "W!, Guaranteed followup on no tech\nS3: Tracking improved to keep on same side",
      "index": "6"
    },
    {
      "attack_command": "1, 2, 2~1+2, u or d",
      "attack_name": "Demon Executioner (Cancel)",
      "jp_command": "LP, RP, RP:AP, 8 or 2",
      "jp_name": "鬼哭剛掌破･否",
      "property": "h, h, (Special)",
      "damage": "7,8",
      "startup": "i10",
      "block": "-16",
      "hit": "-9",
      "counter_hit": "-9",
      "tag": "1221+2u\n1221+2d unlisted",
      "notes": "NC",
      "index": "6a"
    },
    {
      "attack_command": "1, 2, 4",
      "attack_name": "Demon Kicker",
      "jp_command": "LP, RP, RK",
      "jp_name": "鬼哭連蹴",
      "property": "h, h, h",
      "damage": "7,8,21",
      "startup": "i10",
      "block": "-9",
      "hit": "KND",
      "counter_hit": "CS",
      "tag": "124",
      "notes": "NCC",
      "index": "7"
    },
    {
      "attack_command": "1, b+2",
      "attack_name": "Demon Massacre (2)",
      "jp_command": "LP, 4RP",
      "jp_name": "多聞殺",
      "property": "h, m",
      "damage": "7,21",
      "startup": "i10",
      "block": "-2",
      "hit": "+8",
      "counter_hit": "+8",
      "tag": "1b2",
      "notes": "NCC, Delayable",
      "index": "8a"
    },
    {
      "attack_command": "1, b+2, 1",
      "attack_name": "Demon Massacre",
      "jp_command": "LP, 4RP, LP",
      "jp_name": "多聞殺･壱",
      "property": "h, m, m(TJ)",
      "damage": "7,21,20",
      "startup": "i10~ js36~",
      "block": "-15",
      "hit": "KND*",
      "counter_hit": "KND*",
      "tag": "1b21",
      "notes": "NCC, W!, *LNC if hit same time\nS2: Block -27 → -15\nRecovery on hit decreased 12F",
      "index": "8"
    },
    {
      "attack_command": "1, b+2, 4",
      "attack_name": "Demon Lair",
      "jp_command": "LP, 4RP, RK",
      "jp_name": "多聞殺･弐",
      "property": "h, m, m(TJ)",
      "damage": "7,21,30",
      "startup": "i10~ js17~",
      "block": "+5",
      "hit": "KND*",
      "counter_hit": "KND*",
      "tag": "1b24",
      "notes": "W!, BB!",
      "index": "9"
    },
    {
      "attack_command": "2",
      "attack_name": "Demon Backhand Spin (1)",
      "jp_command": "RP",
      "jp_name": "クロスストレート",
      "property": "h",
      "damage": "10",
      "startup": "i10",
      "block": "0",
      "hit": "+9",
      "counter_hit": "+9",
      "tag": "2",
      "notes": "-",
      "index": "10a"
    },
    {
      "attack_command": "2, 2",
      "attack_name": "Demon Backhand Spin",
      "jp_command": "RP, RP",
      "jp_name": "裏拳二段",
      "property": "h, h",
      "damage": "10,18",
      "startup": "i10",
      "block": "-13",
      "hit": "-2",
      "counter_hit": "-2",
      "tag": "22",
      "notes": "NC",
      "index": "10"
    },
    {
      "attack_command": "2, 2~1+2",
      "attack_name": "Quick Executioner",
      "jp_command": "RP, RP:AP",
      "jp_name": "弐連剛掌破",
      "property": "h, m",
      "damage": "10,25",
      "startup": "i10",
      "block": "-6~-5",
      "hit": "KND*",
      "counter_hit": "KND*",
      "tag": "221+2",
      "notes": "*Guaranteed ff2 on no tech\nS3: Tracking improved to keep on same side",
      "index": "11"
    },
    {
      "attack_command": "2, 2~1+2, u or d",
      "attack_name": "Quicker Executioner (Cancel)",
      "jp_command": "RP, RP:AP, 8 or 2",
      "jp_name": "弐連剛掌破･否",
      "property": "h, (Cancel)",
      "damage": "10",
      "startup": "i10",
      "block": "-14",
      "hit": "-5",
      "counter_hit": "-5",
      "tag": "221+2u or 221+2d unlisted",
      "notes": "-",
      "index": "11a"
    },
    {
      "attack_command": "3",
      "attack_name": "Monzenbarai (1)",
      "jp_command": "LK",
      "jp_name": "サイドハイキック",
      "property": "h",
      "damage": "15",
      "startup": "i14",
      "block": "-10",
      "hit": "+1",
      "counter_hit": "+1",
      "tag": "3",
      "notes": "-",
      "index": "12a"
    },
    {
      "attack_command": "3, 4",
      "attack_name": "Monzenbarai",
      "jp_command": "LK, RK",
      "jp_name": "門前払い",
      "property": "h, m",
      "damage": "15,20",
      "startup": "i14",
      "block": "-14~-13",
      "hit": "+3~+4",
      "counter_hit": "LNC(CS)",
      "tag": "34",
      "notes": "NC, Slight tracking right, Block step right\nS3: Reduced homing (Slight tracking right)",
      "index": "12"
    },
    {
      "attack_command": "4",
      "attack_name": "-",
      "jp_command": "RK",
      "jp_name": "バックスピンキック",
      "property": "h",
      "damage": "21",
      "startup": "i16~",
      "block": "-9",
      "hit": "KND",
      "counter_hit": "LNC",
      "tag": "4 unlisted",
      "notes": "W!, Ends i49",
      "index": "-"
    },
    {
      "attack_command": "4~3\nWS+4~3\nu/f+4~3",
      "attack_name": "Demon Scissors",
      "jp_command": "RK:LK\nWS+RK:LK\n9RK:LK",
      "jp_name": "破砕蹴",
      "property": "m(TJ)",
      "damage": "25",
      "startup": "i35~37d (36~) js10~",
      "block": "-11~-9",
      "hit": "KND",
      "counter_hit": "KND",
      "tag": "43\nws43\nuf34",
      "notes": "i35 not possible on NH, u/f version starts at u/f input",
      "index": "13"
    },
    {
      "attack_command": "4~3, D (Whiff)\nWS+4~3, D (Whiff)\nu/f+4~3, D (Whiff)",
      "attack_name": "Demon Scissors",
      "jp_command": "RK:LK, [2] (Whiff)\nWS+RK:LK, [2] (Whiff)\n9RK:LK, [2] (Whiff)",
      "jp_name": "破砕蹴",
      "property": "(TJ)",
      "damage": "-",
      "startup": "i?~ js10~",
      "block": "-",
      "hit": "-",
      "counter_hit": "-",
      "tag": "43 whiff\nws43 whiff\nuf34 whiff",
      "notes": "Heihachi takes 5 damage and stun, u/f version starts at u/f input",
      "index": "13a"
    },
    {
      "attack_command": "1+2",
      "attack_name": "Demon Breath",
      "jp_command": "AP",
      "jp_name": "剛掌破",
      "property": "m",
      "damage": "25",
      "startup": "i12~13",
      "block": "-12~-11",
      "hit": "KND*",
      "counter_hit": "KND*",
      "tag": "1+2",
      "notes": "W!, BB!, *Guaranteed ff2 on no tech\nS2: Hitbox expand downward\nS3: Tracking improved to keep on same side",
      "index": "14"
    },
    {
      "attack_command": "f+2",
      "attack_name": "Pressure Point (1)",
      "jp_command": "6RP",
      "jp_name": "天枢破断(1)",
      "property": "h",
      "damage": "13",
      "startup": "i15~16",
      "block": "-9~-8",
      "hit": "+2~+3",
      "counter_hit": "+2~+3",
      "tag": "f2",
      "notes": "-",
      "index": "15a"
    },
    {
      "attack_command": "f+2, 3",
      "attack_name": "Pressure Point",
      "jp_command": "6RP, LK",
      "jp_name": "天枢破断",
      "property": "h, m",
      "damage": "13,20",
      "startup": "i15~16",
      "block": "-3~-1",
      "hit": "KND*",
      "counter_hit": "LNC(CS)",
      "tag": "f23",
      "notes": "NC, *Guaranteed ff2, Delayable i15, Hit confirmed up to i12 delay",
      "index": "15"
    },
    {
      "attack_command": "f+2~1+2",
      "attack_name": "Demon Shout",
      "jp_command": "6RP:AP",
      "jp_name": "激剛掌破",
      "property": "m",
      "damage": "25",
      "startup": "i16(17~)",
      "block": "-6~-5",
      "hit": "KND*",
      "counter_hit": "KND*",
      "tag": "f21+2",
      "notes": "W!, BB!, *Guaranteed ff2 on no tech\nS3: Tracking improved to keep on same side",
      "index": "16"
    },
    {
      "attack_command": "f+2~1+2, u or d",
      "attack_name": "Demon Shout (Cancel)",
      "jp_command": "6RP:AP, 8 or 2",
      "jp_name": "激剛掌破･否",
      "property": "(Special)",
      "damage": "-",
      "startup": "i?~",
      "block": "-",
      "hit": "-",
      "counter_hit": "-",
      "tag": "f21+2u or f21+2d unlisted",
      "notes": "-",
      "index": "16a"
    },
    {
      "attack_command": "f+3",
      "attack_name": "Lighting Crush",
      "jp_command": "6LK",
      "jp_name": "五臓血塊",
      "property": "m",
      "damage": "20",
      "startup": "i18~20",
      "block": "-3~-1",
      "hit": "KND*",
      "counter_hit": "LNC(CS)",
      "tag": "f3",
      "notes": "W!, BB! on only NH, Ends i45, *Guaranteed ff2 followup",
      "index": "17"
    },
    {
      "attack_command": "f+4",
      "attack_name": "Right Splits Kick",
      "jp_command": "6RK",
      "jp_name": "右踵落とし",
      "property": "m",
      "damage": "20",
      "startup": "i19~20",
      "block": "+4~+5s",
      "hit": "+7~+8s (+13~+14)",
      "counter_hit": "KND*",
      "tag": "f4",
      "notes": "*Guaranteed followup, +13~+14 on FC opp",
      "index": "18"
    },
    {
      "attack_command": "Opponent crouching f+4",
      "attack_name": "Right Splits Kick",
      "jp_command": "Opponent crouching 6RK",
      "jp_name": "右踵落とし",
      "property": "m",
      "damage": "20",
      "startup": "i19~20",
      "block": "+4~+5s",
      "hit": "+13~+14",
      "counter_hit": "KND*",
      "tag": "f4",
      "notes": "*Guaranteed followup",
      "index": "18a"
    },
    {
      "attack_command": "f+1+2",
      "attack_name": "Chrome Dome",
      "jp_command": "6AP",
      "jp_name": "ぱちき",
      "property": "h",
      "damage": "15",
      "startup": "i12~13",
      "block": "-14~-13",
      "hit": "KND*",
      "counter_hit": "KND*",
      "tag": "f1+2",
      "notes": "*Guaranteed followup\nS2: Recovery on hit decreased i3 (OTGF now possible)",
      "index": "19"
    },
    {
      "attack_command": "d/f+1",
      "attack_name": "Double Palm Strike (1)",
      "jp_command": "3LP",
      "jp_name": "ステップインアッパー",
      "property": "m",
      "damage": "10",
      "startup": "i13~14",
      "block": "-1~0",
      "hit": "+9~+10",
      "counter_hit": "+9~+10",
      "tag": "df1",
      "notes": "-",
      "index": "24a"
    },
    {
      "attack_command": "d/f+1, 1",
      "attack_name": "Double Palm Strike",
      "jp_command": "3LP, LP",
      "jp_name": "無双掌波",
      "property": "m, h",
      "damage": "10,8",
      "startup": "i13~14",
      "block": "-2",
      "hit": "+4",
      "counter_hit": "+4",
      "tag": "df11",
      "notes": "NC",
      "index": "24"
    },
    {
      "attack_command": "d/f+1, 2",
      "attack_name": "Muso Tettsui",
      "jp_command": "3LP, RP",
      "jp_name": "無双鉄槌",
      "property": "m, m",
      "damage": "10,24",
      "startup": "i13~14",
      "block": "-13s~-12s",
      "hit": "KND",
      "counter_hit": "KND",
      "tag": "df12",
      "notes": "NC, Delayable i17, Hit confirmed up to i8 delay\nS2: Damage 21 → 24\nS3: Knockback OG reduced",
      "index": "25"
    },
    {
      "attack_command": "d/f+2",
      "attack_name": "-",
      "jp_command": "3RP",
      "jp_name": "ショートアッパー",
      "property": "m",
      "damage": "14",
      "startup": "i15~16",
      "block": "-7~-6",
      "hit": "+4~+5",
      "counter_hit": "LNC",
      "tag": "df2 unlisted",
      "notes": "Ends i41",
      "index": "-"
    },
    {
      "attack_command": "d/f+3",
      "attack_name": "-",
      "jp_command": "3LK",
      "jp_name": "サイドキック",
      "property": "m",
      "damage": "17",
      "startup": "i17",
      "block": "-7",
      "hit": "+4",
      "counter_hit": "+4",
      "tag": "df3 unlisted",
      "notes": "Ends i43",
      "index": "-"
    },
    {
      "attack_command": "d/f+4",
      "attack_name": "-",
      "jp_command": "3RK",
      "jp_name": "フロントキック",
      "property": "m",
      "damage": "15",
      "startup": "i12",
      "block": "-6",
      "hit": "+5",
      "counter_hit": "+5",
      "tag": "df4 unlisted",
      "notes": "Ends i37",
      "index": "-"
    },
    {
      "attack_command": "d/f+1+2",
      "attack_name": "Demon's Wings",
      "jp_command": "3AP",
      "jp_name": "冥鳳翼",
      "property": "m",
      "damage": "25",
      "startup": "i24~25 pc8~23",
      "block": "-14~-13",
      "hit": "KND*",
      "counter_hit": "KND*",
      "tag": "df1+2 power crush amour",
      "notes": "PC, *Guaranteed ff2 followup (ff cd ff2)",
      "index": "26"
    },
    {
      "attack_command": "d+1",
      "attack_name": "Hammer Punch",
      "jp_command": "2LP",
      "jp_name": "瓦割り",
      "property": "m",
      "damage": "16",
      "startup": "i17~18",
      "block": "-9~-8",
      "hit": "+2~+3",
      "counter_hit": "+2~+3",
      "tag": "d1",
      "notes": "-",
      "index": "27"
    },
    {
      "attack_command": "d+1, D",
      "attack_name": "Hammer Punch ~ FC",
      "jp_command": "2LP, [2]",
      "jp_name": "瓦割り～しゃがみ",
      "property": "m(FC)",
      "damage": "16",
      "startup": "i17~18s",
      "block": "-9~-8",
      "hit": "+2~+3",
      "counter_hit": "+2~+3",
      "tag": "d1d unlisted",
      "notes": "-",
      "index": "27a"
    },
    {
      "attack_command": "d+1, 2",
      "attack_name": "Hammer Beating",
      "jp_command": "2LP, RP",
      "jp_name": "瓦割り楔打ち",
      "property": "m, m",
      "damage": "16,17",
      "startup": "i17~18",
      "block": "-9~-8",
      "hit": "+6~+7",
      "counter_hit": "KND*",
      "tag": "d12",
      "notes": "Delayable i11, Hit confirmed up to i3 delay, *Guaranteed followup (Ex: OTGF, ff2, cd1, qcf2, f3)",
      "index": "28"
    },
    {
      "attack_command": "d+2",
      "attack_name": "-",
      "jp_command": "2RP",
      "jp_name": "シットストレート",
      "property": "sm(TC)(FC)",
      "damage": "8",
      "startup": "i11 cs4~",
      "block": "-4",
      "hit": "+7",
      "counter_hit": "+7",
      "tag": "d2 unlisted",
      "notes": "-",
      "index": "-"
    },
    {
      "attack_command": "d+3\nd/f+3+4",
      "attack_name": "Jichinsai",
      "jp_command": "2LK\n3AK",
      "jp_name": "地鎮砕",
      "property": "m",
      "damage": "25",
      "startup": "i22~23",
      "block": "-7s~-6s",
      "hit": "KND",
      "counter_hit": "KND",
      "tag": "d3\ndf3+4",
      "notes": "-",
      "index": "29"
    },
    {
      "attack_command": "d/b+4\nd+4",
      "attack_name": "Lighting Hammer",
      "jp_command": "2LP+RK",
      "jp_name": "ローキック",
      "property": "l(TC)(FC)",
      "damage": "7",
      "startup": "i12~ cs4~",
      "block": "-13s",
      "hit": "-2",
      "counter_hit": "-2",
      "tag": "db4\nd4",
      "notes": "-",
      "index": "-"
    },
    {
      "attack_command": "d+1+4",
      "attack_name": "Lighting Hammer",
      "jp_command": "2LP+RK",
      "jp_name": "鬼瓦",
      "property": "m!",
      "damage": "50",
      "startup": "i60",
      "block": "KND",
      "hit": "KND*",
      "counter_hit": "KND*",
      "tag": "d1+4",
      "notes": "*Guaranteed followup",
      "index": "30"
    },
    {
      "attack_command": "d+2+3 (Close)",
      "attack_name": "Battering Ram",
      "jp_command": "2RP+LK",
      "jp_name": "破砕衝",
      "property": "l",
      "damage": "20",
      "startup": "i62",
      "block": "-3",
      "hit": "-3",
      "counter_hit": "-3",
      "tag": "d2+3",
      "notes": "-",
      "index": "31"
    },
    {
      "attack_command": "d+2+3 (Far)",
      "attack_name": "Battering Ram",
      "jp_command": "2RP+LK",
      "jp_name": "破砕衝",
      "property": "l!",
      "damage": "0",
      "startup": "i62",
      "block": "+32g",
      "hit": "+32g",
      "counter_hit": "+32g",
      "tag": "d2+3 far",
      "notes": "-",
      "index": "31a"
    },
    {
      "attack_command": "d/b+1",
      "attack_name": "-",
      "jp_command": "1LP",
      "jp_name": "シットジャブ",
      "property": "sm(TC)(FC)",
      "damage": "5",
      "startup": "i10 cs4~",
      "block": "-5",
      "hit": "+6",
      "counter_hit": "+6",
      "tag": "db1 unlisted",
      "notes": "-",
      "index": "-"
    },
    {
      "attack_command": "d/b+1, F",
      "attack_name": "-",
      "jp_command": "1LP, [6]",
      "jp_name": "シットジャブ",
      "property": "sm(TC)",
      "damage": "5",
      "startup": "i10 cs4~",
      "block": "-5",
      "hit": "+6",
      "counter_hit": "+6",
      "tag": "db1f unlisted",
      "notes": "-",
      "index": "-"
    },
    {
      "attack_command": "d/b+2",
      "attack_name": "Eishomon",
      "jp_command": "1RP",
      "jp_name": "影生門",
      "property": "l(TC)(FC)",
      "damage": "23",
      "startup": "i23~25 cs8~",
      "block": "-18s~-16s",
      "hit": "+5s~+7s",
      "counter_hit": "+5s~+7s",
      "tag": "db2",
      "notes": "-",
      "index": "32"
    },
    {
      "attack_command": "d/b+3",
      "attack_name": "-",
      "jp_command": "1LK",
      "jp_name": "スイープキック",
      "property": "l(TC)(FC)",
      "damage": "12",
      "startup": "i15~ cs4~",
      "block": "-18s",
      "hit": "-4",
      "counter_hit": "-4",
      "tag": "db3 unlisted",
      "notes": "-",
      "index": "-"
    },
    {
      "attack_command": "d/b+1+2",
      "attack_name": "Angekisai",
      "jp_command": "1AP",
      "jp_name": "暗撃砕",
      "property": "m(TC)m",
      "damage": "10,20",
      "startup": "i21~22 cs?~",
      "block": "-13~-12",
      "hit": "+5~+6",
      "counter_hit": "+5~+6",
      "tag": "db1+2",
      "notes": "AOP height",
      "index": "33"
    },
    {
      "attack_command": "b+1",
      "attack_name": "Funkei Uraken (1)",
      "jp_command": "4LP",
      "jp_name": "刎頚裏拳(1)",
      "property": "h",
      "damage": "14",
      "startup": "i15~16",
      "block": "-11~-10",
      "hit": "-5~-4",
      "counter_hit": "-5~-4",
      "tag": "b1 homing",
      "notes": "Homing",
      "index": "34a"
    },
    {
      "attack_command": "b+1, 2",
      "attack_name": "Funkei Uraken",
      "jp_command": "4LP, RP",
      "jp_name": "刎頚裏拳",
      "property": "h, h",
      "damage": "14,20",
      "startup": "i15~16",
      "block": "-9",
      "hit": "+15k",
      "counter_hit": "LNC(CS)",
      "tag": "b12 tail spin bound homing",
      "notes": "NC, S!, Delayable i15, Hit confirmed up to i9 delay",
      "index": "34"
    },
    {
      "attack_command": "b+1, 2~1+2",
      "attack_name": "Funkei Goshoha",
      "jp_command": "4LP, RP:AP",
      "jp_name": "刎頚剛掌破",
      "property": "h, m",
      "damage": "14,25",
      "startup": "i15~16",
      "block": "-6~-5",
      "hit": "KND*",
      "counter_hit": "KND*",
      "tag": "b121+2 homing",
      "notes": "Homing, *Guaranteed followup on no tech\nS3: Tracking improved to keep on same side",
      "index": "35"
    },
    {
      "attack_command": "b+1, 2~1+2, u or d",
      "attack_name": "Funkei Goshoha (Cancel)",
      "jp_command": "4LP, RP:AP, 8 or 2",
      "jp_name": "刎頚剛掌破･否",
      "property": "h, (Cancel)",
      "damage": "14",
      "startup": "i15~16",
      "block": "-19~-18",
      "hit": "-13~-12",
      "counter_hit": "-13~-12",
      "tag": "b121+2u or b121+2d cancel homing",
      "notes": "Homing",
      "index": "35a"
    },
    {
      "attack_command": "b+2",
      "attack_name": "Rashomon",
      "jp_command": "4RP",
      "jp_name": "羅生門",
      "property": "m",
      "damage": "20",
      "startup": "i22~23",
      "block": "-2~-1",
      "hit": "KND(WB!)",
      "counter_hit": "KND(WB!)",
      "tag": "b2 wall bounce bound",
      "notes": "WB!, BB!\nS2: Now Wall Bounce",
      "index": "36"
    },
    {
      "attack_command": "b+3",
      "attack_name": "Hooking Crescent Kick (1)",
      "jp_command": "4LK",
      "jp_name": "鰐下駄(1)",
      "property": "h",
      "damage": "14",
      "startup": "i14~16",
      "block": "-4~-2",
      "hit": "+7~+9",
      "counter_hit": "+7~+9",
      "tag": "b3",
      "notes": "S3: Increased horizontal hitbox, Close on hit",
      "index": "37a"
    },
    {
      "attack_command": "b+3, 3",
      "attack_name": "Hooking Crescent Kick",
      "jp_command": "4LK, LK",
      "jp_name": "鰐下駄",
      "property": "h, m",
      "damage": "14,25",
      "startup": "i14~16",
      "block": "-12~-8s",
      "hit": "KND",
      "counter_hit": "KND",
      "tag": "b33",
      "notes": "NC\nS3: Increased horizontal hitbox, Close on hit",
      "index": "37"
    },
    {
      "attack_command": "b+4",
      "attack_name": "Shingetsusen",
      "jp_command": "4RK",
      "jp_name": "真月旋",
      "property": "m",
      "damage": "20",
      "startup": "i18~20",
      "block": "-9~-7",
      "hit": "KND",
      "counter_hit": "KND",
      "tag": "b4 tail spin bound homing",
      "notes": "S!, W!, BB!, Homing, Ends i46",
      "index": "38"
    },
    {
      "attack_command": "b+1+2",
      "attack_name": "Twin Hammer Volley (1)",
      "jp_command": "4AP",
      "jp_name": "剛掌烈破",
      "property": "m",
      "damage": "18",
      "startup": "i17~18",
      "block": "-9~-8",
      "hit": "+2~+3",
      "counter_hit": "+2~+3",
      "tag": "b1+2",
      "notes": "S3: Startup i19 → i17",
      "index": "39a"
    },
    {
      "attack_command": "b+1+2, 1+2",
      "attack_name": "Twin Hammer Volley",
      "jp_command": "4AP, AP",
      "jp_name": "剛掌烈破･連",
      "property": "m, m",
      "damage": "18,24",
      "startup": "i19~20",
      "block": "-13",
      "hit": "KND",
      "counter_hit": "KND",
      "tag": "b1+21+2",
      "notes": "NC, W!, BB!, Delayable i18, Hit confirmed up to i4 delay\nS3: Startup i19 → i17",
      "index": "37"
    },
    {
      "attack_command": "u/b+1\nu+1\nu/f+1",
      "attack_name": "-",
      "jp_command": "7LP\n8LP\n9LP",
      "jp_name": "ジャンプナックル",
      "property": "m(TJ)",
      "damage": "12",
      "startup": "i18~ js9~",
      "block": "-12",
      "hit": "-1",
      "counter_hit": "-1",
      "tag": "ub1\nu1\nuf1 unlisted",
      "notes": "-",
      "index": "-"
    },
    {
      "attack_command": "u/b+2\nu+2\nu/f+2",
      "attack_name": "-",
      "jp_command": "7RP\n8RP\n9RP",
      "jp_name": "フック",
      "property": "h",
      "damage": "17",
      "startup": "i15~",
      "block": "-12",
      "hit": "+9",
      "counter_hit": "+9",
      "tag": "ub2\nu2\nuf2 unlisted",
      "notes": "-",
      "index": "-"
    },
    {
      "attack_command": "u/b+3\nu+3",
      "attack_name": "-",
      "jp_command": "7LK\n8LK",
      "jp_name": "ジャンプサイドキック",
      "property": "m(TJ)",
      "damage": "25",
      "startup": "i21~ js9~",
      "block": "-10~-9",
      "hit": "KND",
      "counter_hit": "KND",
      "tag": "ub3\nu3 unlisted",
      "notes": "-",
      "index": "-"
    },
    {
      "attack_command": "u/f+3",
      "attack_name": "Hell Axle (1)",
      "jp_command": "9LK",
      "jp_name": "空刃脚",
      "property": "m(TJ)",
      "damage": "17",
      "startup": "i28~29 js9~",
      "block": "-10~-9",
      "hit": "KND",
      "counter_hit": "KND",
      "tag": "uf3",
      "notes": "-",
      "index": "40a"
    },
    {
      "attack_command": "u/f+3, 4",
      "attack_name": "Hell Axle",
      "jp_command": "9LK, RK",
      "jp_name": "裏旋空刃脚",
      "property": "m(TJ), m(TJ)",
      "damage": "17,20",
      "startup": "ijs1~",
      "block": "+3~+4",
      "hit": "KND(S!)",
      "counter_hit": "KND(S!)",
      "tag": "uf34 tail spin bound",
      "notes": "NC, S!\nS2: Block +1 → +3, Recovery on hit decreased 2F, Hitbox expanded downward, Homing increased",
      "index": "40"
    },
    {
      "attack_command": "U/F+3",
      "attack_name": "-",
      "jp_command": "9LK",
      "jp_name": "-",
      "property": "m(TJ)",
      "damage": "?",
      "startup": "i?~ js?~",
      "block": "?",
      "hit": "?",
      "counter_hit": "?",
      "tag": "uf3 unlisted",
      "notes": "Legacy move, Delayable",
      "index": "-"
    },
    {
      "attack_command": "u/b+4",
      "attack_name": "-",
      "jp_command": "7RK",
      "jp_name": "ジャンプトゥーキック",
      "property": "m(TJ)",
      "damage": "11",
      "startup": "i15~ js9~",
      "block": "-19",
      "hit": "-8",
      "counter_hit": "-8",
      "tag": "ub4 unlisted",
      "notes": "-",
      "index": "-"
    },
    {
      "attack_command": "u+4",
      "attack_name": "-",
      "jp_command": "8RK",
      "jp_name": "ジャンプトゥーキック",
      "property": "m(TJ)",
      "damage": "15",
      "startup": "i15~ js9~",
      "block": "-13",
      "hit": "KND",
      "counter_hit": "LNC",
      "tag": "u4 unlisted",
      "notes": "Ends i46",
      "index": "-"
    },
    {
      "attack_command": "u/f+4",
      "attack_name": "Wind Slicer",
      "jp_command": "9RK",
      "jp_name": "玄空脚",
      "property": "m(TJ)",
      "damage": "25",
      "startup": "i24~27 js9~",
      "block": "-5~-2",
      "hit": "KND",
      "counter_hit": "KND",
      "tag": "uf4 tail spin bound",
      "notes": "S!",
      "index": "41"
    },
    {
      "attack_command": "U/F+4",
      "attack_name": "-",
      "jp_command": "[9]RK",
      "jp_name": "-",
      "property": "m(TJ)",
      "damage": "?",
      "startup": "i?~ js?~",
      "block": "?",
      "hit": "KND",
      "counter_hit": "KND",
      "tag": "uf4 unlisted",
      "notes": "-",
      "index": "-"
    },
    {
      "attack_command": "u/f, n, 3",
      "attack_name": "-",
      "jp_command": "95LK",
      "jp_name": "-",
      "property": "m(TJ)",
      "damage": "?",
      "startup": "i?~ js?~",
      "block": "?",
      "hit": "?",
      "counter_hit": "?",
      "tag": "ufn3 unlisted",
      "notes": "Legacy move, Delayable",
      "index": "-"
    },
    {
      "attack_command": "u/f, n, 4",
      "attack_name": "Wind Slicer",
      "jp_command": "95RK",
      "jp_name": "螺旋脚（仮）",
      "property": "m(TJ)",
      "damage": "25",
      "startup": "i29~ js?~",
      "block": "-24",
      "hit": "KND",
      "counter_hit": "KND",
      "tag": "ufn4",
      "notes": "Legacy move, Can delay as much as 2D moves",
      "index": "-"
    },
    {
      "attack_command": "f, F+2",
      "attack_name": "Demon Uppercut",
      "jp_command": "6[6]RP",
      "jp_name": "鬼神拳",
      "property": "m",
      "damage": "22",
      "startup": "i19~20 (20~)",
      "block": "-16~-15",
      "hit": "LNC",
      "counter_hit": "LNC",
      "tag": "ff2",
      "notes": "Hits grounded, Flips on midair and down\nS2: Startup i20 → i19, Farther on hit, Flips downed opp, Homing decreased\nS3: Flips midair opp, Damage 25 → 22, Reduced tracking",
      "index": "42"
    },
    {
      "attack_command": "f, F+3",
      "attack_name": "Left Splits Kick",
      "jp_command": "6[6]LK",
      "jp_name": "左踵落とし",
      "property": "m",
      "damage": "25",
      "startup": "i20~22 (21~23)",
      "block": "-3s~-1s",
      "hit": "LNC",
      "counter_hit": "LNC",
      "tag": "ff3",
      "notes": "-",
      "index": "43"
    },
    {
      "attack_command": "f, f, n, 2",
      "attack_name": "10 Hit Combo 1 (1)",
      "jp_command": "665RP",
      "jp_name": "10連コンボ(1)",
      "property": "h",
      "damage": "7",
      "startup": "i12~",
      "block": "-10",
      "hit": "-1",
      "counter_hit": "-1",
      "tag": "ffn2 unlisted",
      "notes": "-",
      "index": "67a"
    },
    {
      "attack_command": "b, f+2",
      "attack_name": "Tenma Destroyer (1)",
      "jp_command": "46RP",
      "jp_name": "天魔覆滅(1)",
      "property": "m",
      "damage": "12",
      "startup": "i15~16",
      "block": "-7~-6",
      "hit": "+4~+5",
      "counter_hit": "+4~+5",
      "tag": "bf2",
      "notes": "-",
      "index": "44a"
    },
    {
      "attack_command": "b, f+2, 1",
      "attack_name": "Tenma Destroyer",
      "jp_command": "46RP, LP",
      "jp_name": "天魔覆滅",
      "property": "m, h",
      "damage": "12,24",
      "startup": "i15~16 (15~)",
      "block": "-9",
      "hit": "KND",
      "counter_hit": "KND",
      "tag": "bf21",
      "notes": "NC, W!, BB!, Delayable i17, Hit confirmed up to i11 delay",
      "index": "44"
    },
    {
      "attack_command": "b, f+2, 2",
      "attack_name": "Subjugator",
      "jp_command": "46RP, RP",
      "jp_name": "天魔降伏",
      "property": "m, m",
      "damage": "12,21",
      "startup": "i15~16",
      "block": "-12s",
      "hit": "+1s",
      "counter_hit": "LNC",
      "tag": "bf22",
      "notes": "NC, Delayable i17, Hit confirmed up to i7 delay, Techable bound",
      "index": "45"
    },
    {
      "attack_command": "b, f+2, 3",
      "attack_name": "Tenma Barrage",
      "jp_command": "46RP, LK",
      "jp_name": "天魔蹂躙",
      "property": "m, h",
      "damage": "12,20",
      "startup": "i15~16 (15~)",
      "block": "-9~-8",
      "hit": "KND",
      "counter_hit": "KND",
      "tag": "bf23 tail spin bound",
      "notes": "NC, S!, W!, BB!, Delayable i17, Hit confirmed up to i7 delay",
      "index": "-"
    },
    {
      "attack_command": "b, B+1+2",
      "attack_name": "Deity Slayer",
      "jp_command": "4[4]AP",
      "jp_name": "砕神掌",
      "property": "m",
      "damage": "25",
      "startup": "i35~36 (36~)",
      "block": "+8~+9",
      "hit": "KND",
      "counter_hit": "KND",
      "tag": "bb1+2",
      "notes": "-",
      "index": "47"
    },
    {
      "attack_command": "b, B+3+4",
      "attack_name": "Shadow Step",
      "jp_command": "4[4]AK",
      "jp_name": "影足",
      "property": "(Special)",
      "damage": "-",
      "startup": "i35~36 (36~)",
      "block": "-",
      "hit": "-",
      "counter_hit": "-",
      "tag": "bb3+4",
      "notes": "Ends i60",
      "index": "48"
    },
    {
      "attack_command": "qcf+2",
      "attack_name": "Iron Hand",
      "jp_command": "236RP",
      "jp_name": "金剛槍掌",
      "property": "m",
      "damage": "30",
      "startup": "i15~16 (15~)",
      "block": "-17~-16",
      "hit": "ED",
      "counter_hit": "ED",
      "tag": "qcf2",
      "notes": "W!, BB!",
      "index": "57"
    },
    {
      "attack_command": "f, f, f+3\nWR+3",
      "attack_name": "Leaping Side Kick",
      "jp_command": "66[6]LK\nWR+LK",
      "jp_name": "空斬脚",
      "property": "m",
      "damage": "30",
      "startup": "i22~25 (25~) js3~",
      "block": "+9g~+12g",
      "hit": "KND",
      "counter_hit": "KND",
      "tag": "fff3\nwr3",
      "notes": "W!, BB!",
      "index": "58"
    },
    {
      "attack_command": "FC+1",
      "attack_name": "-",
      "jp_command": "FC+LP",
      "jp_name": "シットジャブ",
      "property": "sm(TC)(FC)",
      "damage": "5",
      "startup": "i10 cs0~",
      "block": "-5",
      "hit": "+6",
      "counter_hit": "+6",
      "tag": "fc 1 unlisted",
      "notes": "-",
      "index": "-"
    },
    {
      "attack_command": "FC+1, F",
      "attack_name": "-",
      "jp_command": "FC+LP, [6]",
      "jp_name": "シットジャブ",
      "property": "sm(TC)",
      "damage": "5",
      "startup": "i10 cs0~",
      "block": "-5",
      "hit": "+6",
      "counter_hit": "+6",
      "tag": "fc 1f",
      "notes": "-",
      "index": "-"
    },
    {
      "attack_command": "FC+2",
      "attack_name": "-",
      "jp_command": "FC+RP",
      "jp_name": "シットストレート",
      "property": "sm(TC)(FC)",
      "damage": "8",
      "startup": "i11 cs0~",
      "block": "-4",
      "hit": "+7",
      "counter_hit": "+7",
      "tag": "fc 2 unlisted",
      "notes": "-",
      "index": "-"
    },
    {
      "attack_command": "FC+3",
      "attack_name": "-",
      "jp_command": "FC+LK",
      "jp_name": "シットスピンキック",
      "property": "l(TC)(FC)",
      "damage": "23",
      "startup": "i16 cs0~",
      "block": "-17",
      "hit": "-3",
      "counter_hit": "-3",
      "tag": "fc 3 unlisted",
      "notes": "-",
      "index": "-"
    },
    {
      "attack_command": "FC+d/b+4\nFC+d+4",
      "attack_name": "-",
      "jp_command": "FC+1RK\nFC+2RK",
      "jp_name": "ローキック",
      "property": "l(TC)(FC)",
      "damage": "10",
      "startup": "i12~ cs0~",
      "block": "-15",
      "hit": "-4",
      "counter_hit": "-4",
      "tag": "fc db4 fc d4 unlisted",
      "notes": "-",
      "index": "-"
    },
    {
      "attack_command": "FC+d/f+4",
      "attack_name": "Crouching Dragon Kick",
      "jp_command": "FC+3RK",
      "jp_name": "伏龍脚",
      "property": "l(TC)",
      "damage": "20",
      "startup": "i19~21s cs1~",
      "block": "-23",
      "hit": "KND*",
      "counter_hit": "KND*",
      "tag": "fc df4",
      "notes": "*Guaranteed ff2 followup\nS2: Guaranteed followup\nS3: Damage 23 → 20",
      "index": "63"
    },
    {
      "attack_command": "WS+1",
      "attack_name": "Quick Iron Fist",
      "jp_command": "WS+LP",
      "jp_name": "金剛掌",
      "property": "m",
      "damage": "20",
      "startup": "i14~15",
      "block": "-14~-13",
      "hit": "KND*",
      "counter_hit": "KND*",
      "tag": "ws1",
      "notes": "W!, BB!, *Guaranteed followup (OTGF possible)\nS2: Recovery on hit decreased 3F, Recovery on whiff increased 1F",
      "index": "59"
    },
    {
      "attack_command": "WS+2",
      "attack_name": "Dark Thrust",
      "jp_command": "WS+RP",
      "jp_name": "観音砕き",
      "property": "m(TC)",
      "damage": "20",
      "startup": "i18 cs1~8",
      "block": "-6",
      "hit": "+11k",
      "counter_hit": "LNC(CS)",
      "tag": "ws2 tail spin bound",
      "notes": "S!, Ends i50\nS2: Screw on midair hit",
      "index": "60"
    },
    {
      "attack_command": "WS+3",
      "attack_name": "Holy Demon Cross (1)",
      "jp_command": "WS+LK",
      "jp_name": "神門鬼十字(1)",
      "property": "m",
      "damage": "10",
      "startup": "i18~",
      "block": "-11",
      "hit": "0",
      "counter_hit": "0",
      "tag": "ws31+2",
      "notes": "S3: New move, legacy WS+3 no longer exists",
      "index": "61a"
    },
    {
      "attack_command": "WS+3, 1+2",
      "attack_name": "Holy Demon Cross",
      "jp_command": "WS+LK, AP",
      "jp_name": "神門鬼十字",
      "property": "m, m",
      "damage": "10,20",
      "startup": "i18~",
      "block": "-14",
      "hit": "LNC",
      "counter_hit": "LNC",
      "tag": "ws31+2",
      "notes": "NC\nS3: New move",
      "index": "61"
    },
    {
      "attack_command": "WS+4",
      "attack_name": "Tsunami Kick (1)",
      "jp_command": "WS+RK",
      "jp_name": "トゥースマッシュ",
      "property": "m",
      "damage": "13",
      "startup": "i11~12",
      "block": "-3~-2",
      "hit": "+8~+9",
      "counter_hit": "+8~+9",
      "tag": "ws4",
      "notes": "-",
      "index": "62a"
    },
    {
      "attack_command": "WS+4, 4",
      "attack_name": "Tsunami Kick",
      "jp_command": "WS+RK, RK",
      "jp_name": "踵落とし",
      "property": "m, m",
      "damage": "13,16",
      "startup": "i11~12",
      "block": "-15~-14",
      "hit": "0s~+1s",
      "counter_hit": "0s~+1s",
      "tag": "ws44",
      "notes": "NC, Delayable i7\nS2: Hit -4 → 0",
      "index": "62"
    },
    {
      "attack_command": "SS+2",
      "attack_name": "Kidney Crush Combo (1)",
      "jp_command": "SS+RP",
      "jp_name": "万漢掌",
      "property": "m",
      "damage": "10",
      "startup": "i19(28~)",
      "block": "-9",
      "hit": "-1",
      "counter_hit": "-1",
      "tag": "ss2",
      "notes": "S2: Damage 15 → 10",
      "index": "64a"
    },
    {
      "attack_command": "SS+2, 1",
      "attack_name": "Kidney Crush Combo",
      "jp_command": "SS+RP, LP",
      "jp_name": "万漢螺旋掌",
      "property": "m, m",
      "damage": "10,20",
      "startup": "i19(28~)",
      "block": "-14~-13",
      "hit": "LNC(CS)",
      "counter_hit": "LNC(CS)",
      "tag": "ss21",
      "notes": "NC, Delayable i16, Hit confirmed up to i5 delay\nS2: Damage 21 → 20, Block -12 → -14, Hit KND → CS",
      "index": "64"
    },
    {
      "attack_command": "Opponent down d+4",
      "attack_name": "Geta Stomp",
      "jp_command": "Opponent down 2RK",
      "jp_name": "鬼下駄",
      "property": "l",
      "damage": "30",
      "startup": "i18",
      "block": "-14s",
      "hit": "-3",
      "counter_hit": "-3",
      "tag": "opponent down d4",
      "notes": "S2: Block -16 → -14\nCloser on block\nHit -5 → -3",
      "index": "65"
    },
    {
      "attack_command": "2+3+4",
      "attack_name": "Auger",
      "jp_command": "RP+LK+RK",
      "jp_name": "挑発",
      "property": "(Special)",
      "damage": "-",
      "startup": "i19",
      "block": "-",
      "hit": "-",
      "counter_hit": "-",
      "tag": "2+3+4",
      "notes": "Cancellable i0",
      "index": "66"
    },
    {
      "attack_command": "1+2+3+4 (KI)",
      "attack_name": "Ki Charge",
      "jp_command": "LP+RP+LK+RK (KI)",
      "jp_name": "気合溜め",
      "property": "(KI)",
      "damage": "-",
      "startup": "i19",
      "block": "-",
      "hit": "-",
      "counter_hit": "-",
      "tag": "1+2+3+4 ki charge unlisted",
      "notes": "Ends i55",
      "index": "-"
    },
    {
      "attack_command": "1+2+3+4, d, u, u+3\n1+2+3+4, d, u, u/f+3",
      "attack_name": "Omen Hell Axle (1)",
      "jp_command": "LP+RP+LK+RK, 288LK\nLP+RP+LK+RK, 289LK",
      "jp_name": "烈閃脚(1)",
      "property": "m(TJ)",
      "damage": "36",
      "startup": "i84~ js9~",
      "block": "-10~-9",
      "hit": "KND",
      "counter_hit": "KND",
      "tag": "ki duu3\nki duuf3 unlisted ki charge",
      "notes": "-",
      "index": "-"
    },
    {
      "attack_command": "1+2+3+4, d, u, u+3, 4\n1+2+3+4, d, u, u/f+3, 4",
      "attack_name": "Omen Hell Axle",
      "jp_command": "LP+RP+LK+RK, 288LK, RK\nLP+RP+LK+RK, 289LK, RK",
      "jp_name": "烈閃脚",
      "property": "(Special), m(TJ), m(TJ)",
      "damage": "36,24",
      "startup": "i84~ js9~",
      "block": "+3~+4",
      "hit": "KND(S!)",
      "counter_hit": "KND(S!)",
      "tag": "ki duu34\nki duuf34 unlisted ki charge",
      "notes": "NC, S!, W!, BB!\nS2: Block +1 → +3, Recovery on hit decreased 2F, Hitbox expanded downward, Homing increased",
      "index": "-"
    },
    {
      "attack_command": "Back to wall b, b, u/b",
      "attack_name": "Raijin Stance",
      "jp_command": "Back to wall 447",
      "jp_name": "壁上り反転攻撃",
      "property": "m(TJ)",
      "damage": "15",
      "startup": "i29~ js5~ inv8~13",
      "block": "-1",
      "hit": "KND*",
      "counter_hit": "KND*",
      "tag": "back to wall bbub unlisted",
      "notes": "*Guaranteed ff2 on no tech",
      "index": "-"
    },
    {
      "attack_command": "BT 1\nBT 2",
      "attack_name": "-",
      "jp_command": "BT LP\nBT RP",
      "jp_name": "スピンナックルジャブ",
      "property": "h",
      "damage": "15",
      "startup": "i8~",
      "block": "+3",
      "hit": "+3",
      "counter_hit": "+3",
      "tag": "bt 1 bt 2 unlisted",
      "notes": "-",
      "index": "-"
    },
    {
      "attack_command": "BT 3\nBT 4",
      "attack_name": "-",
      "jp_command": "BT LK\nBT RK",
      "jp_name": "スピンキック",
      "property": "h",
      "damage": "18",
      "startup": "i10~",
      "block": "-8",
      "hit": "KND",
      "counter_hit": "KND",
      "tag": "bt 3 bt 4 unlisted",
      "notes": "-",
      "index": "-"
    },
    {
      "attack_command": "BT d+1\nBT d+2",
      "attack_name": "-",
      "jp_command": "BT 2LP\nBT",
      "jp_name": "シットスピンナックル",
      "property": "sm(TC)(FC)",
      "damage": "10",
      "startup": "i10 cs1~",
      "block": "-2",
      "hit": "+9",
      "counter_hit": "+9",
      "tag": "bt d1\nbt d2 unlisted",
      "notes": "-",
      "index": "-"
    },
    {
      "attack_command": "BT d+3\nBT d+4",
      "attack_name": "-",
      "jp_command": "BT 2LK\nBT 2RK",
      "jp_name": "シットスピンキック",
      "property": "l(TC)(FC)",
      "damage": "12",
      "startup": "i10 cs1~",
      "block": "-11",
      "hit": "+3",
      "counter_hit": "+3",
      "tag": "bt d3 bt d4 unlisted",
      "notes": "-",
      "index": "-"
    },
    {
      "attack_command": "f+3+4 (RAI)(Parry)",
      "attack_name": "Raijin Stance",
      "jp_command": "6AK (RAI)(Parry)",
      "jp_name": "三島流･封殺陣の構え",
      "property": "(h or m punch parry)(RAI)",
      "damage": "-",
      "startup": "i20~",
      "block": "-",
      "hit": "-",
      "counter_hit": "-",
      "tag": "f3+4",
      "notes": "Ends i40",
      "index": "20"
    },
    {
      "attack_command": "f+3+4 (RAI)",
      "attack_name": "Raijin Stance (Parry)",
      "jp_command": "6AK",
      "jp_name": "三島流･封殺陣の構え",
      "property": "(h or m punch parry)(RAI)",
      "damage": "-",
      "startup": "i5~12",
      "block": "-",
      "hit": "Throw(?)",
      "counter_hit": "-",
      "tag": "f3+4 parry throw",
      "notes": "-",
      "index": "20a"
    },
    {
      "attack_command": "f+3+4, u or d (Cancel)",
      "attack_name": "Raijin Stance (Cancel)",
      "jp_command": "6AK, 8 or 2 (Cancel)",
      "jp_name": "三島流･封殺陣の構え～横移動",
      "property": "(Cancel)",
      "damage": "-",
      "startup": "i29~ (37~)",
      "block": "-",
      "hit": "-",
      "counter_hit": "-",
      "tag": "f3+4u(cancel) f3+4d(cancel) unlisted raiu raid",
      "notes": "Side step occurs after i37, Cannot cancel if parry occurs\nS2: New Transition",
      "index": "20b"
    },
    {
      "attack_command": "RAI 1",
      "attack_name": "Fusatsujin Hasaiken",
      "jp_command": "RAI LP",
      "jp_name": "封殺陣･破砕拳",
      "property": "h",
      "damage": "20",
      "startup": "i17~18 (37~)",
      "block": "-2~-1",
      "hit": "LNC(CS)",
      "counter_hit": "LNC(CS)",
      "tag": "rai 1 f3+41",
      "notes": "Homing\nS2: Damage 25 → 20\nHit KND → CS",
      "index": "21"
    },
    {
      "attack_command": "RAI 2",
      "attack_name": "Raijin's Wrath (1)",
      "jp_command": "RAI RP",
      "jp_name": "封殺陣･爆砕拳(1)",
      "property": "m",
      "damage": "20",
      "startup": "i15~16 (35~)",
      "block": "-13~-12",
      "hit": "KND*",
      "counter_hit": "KND*",
      "tag": "rai 2",
      "notes": "*Guaranteed ff2 followup (ff, cd, ff2)",
      "index": "22a"
    },
    {
      "attack_command": "RAI 2, 1",
      "attack_name": "Raijin's Wrath",
      "jp_command": "RAI RP, LP",
      "jp_name": "封殺陣･爆砕拳",
      "property": "m, m",
      "damage": "20,23",
      "startup": "i15~16 (35~)",
      "block": "-17s~-16s",
      "hit": "KND",
      "counter_hit": "KND",
      "tag": "rai 21 f3+421",
      "notes": "W!, BB!, FB!, NC",
      "index": "22"
    },
    {
      "attack_command": "RAI 1+2",
      "attack_name": "Lighting Bolt",
      "jp_command": "RAI AP",
      "jp_name": "封殺陣･頭槌砕",
      "property": "h!",
      "damage": "35",
      "startup": "i56(76~)",
      "block": "LNC(CS)",
      "hit": "LNC(CS)",
      "counter_hit": "LNC(CS)",
      "tag": "rai 1+2 f3+41+2",
      "notes": "-",
      "index": "23"
    },
    {
      "attack_command": "RAI 1+2, B (Cancel)",
      "attack_name": "Lighting Bolt",
      "jp_command": "RAI AP, [4] (Cancel)",
      "jp_name": "封殺陣･頭槌砕～キャンセル",
      "property": "(Cancel)",
      "damage": "35",
      "startup": "i50",
      "block": "-",
      "hit": "-",
      "counter_hit": "-",
      "tag": "rai 1+2b cancel f3+41+2b cancel",
      "notes": "-",
      "index": "23a"
    },
    {
      "attack_command": "f, n, d, D/F (CD)",
      "attack_name": "Crouch Dash",
      "jp_command": "652[3] (CD)",
      "jp_name": "風神ステップ",
      "property": "(CD)",
      "damage": "-",
      "startup": "i?~",
      "block": "-",
      "hit": "-",
      "counter_hit": "-",
      "tag": "fnddf cd unlisted",
      "notes": "-",
      "index": "-"
    },
    {
      "attack_command": "f, n, d, d/f+1",
      "attack_name": "Dragon Uppercut",
      "jp_command": "6523LP",
      "jp_name": "雷神拳",
      "property": "m",
      "damage": "25",
      "startup": "i19~20 (22~) js19~",
      "block": "-15~-14",
      "hit": "LNC",
      "counter_hit": "LNC",
      "tag": "fnddf1 cd1",
      "notes": "-",
      "index": "49"
    },
    {
      "attack_command": "f, n, d/f+1",
      "attack_name": "Omen Thunder God Fist",
      "jp_command": "653LP",
      "jp_name": "青雷神拳（仮）",
      "property": "m(TJ)",
      "damage": "35",
      "startup": "i19~21a (21~) js19~",
      "block": "-10~-8",
      "hit": "LNC",
      "counter_hit": "LNC",
      "tag": "fndf1 otgf unlisted",
      "notes": "S2: Damage 30 → 35\nBlock -9 → -10\nRecovery on hit increased 1F\nHit on grounded flip",
      "index": "49a"
    },
    {
      "attack_command": "f, n, d, D/F+2",
      "attack_name": "Wind God Fist",
      "jp_command": "652[3]RP",
      "jp_name": "風神拳",
      "property": "h",
      "damage": "23",
      "startup": "i11~12 (15~)",
      "block": "-10~-9",
      "hit": "LNC",
      "counter_hit": "LNC",
      "tag": "fnddf2 cd2",
      "notes": "Ends i40\nS3: Damage 23 → 20",
      "index": "50"
    },
    {
      "attack_command": "f, n, d, d/f+2",
      "attack_name": "Electric Wind God Fist",
      "jp_command": "6523RP",
      "jp_name": "最速風神拳",
      "property": "h",
      "damage": "23",
      "startup": "i11~12 (14~)",
      "block": "+5~+6",
      "hit": "LNC",
      "counter_hit": "LNC",
      "tag": "fnddf2 ewgf cd2",
      "notes": "Ends i39\nS2: Homing increased",
      "index": "51"
    },
    {
      "attack_command": "f, n, d, d/f+3",
      "attack_name": "Jumping Mid Kick",
      "jp_command": "6523LK",
      "jp_name": "激斬脚",
      "property": "m",
      "damage": "30",
      "startup": "i27~28 (30~) js5~",
      "block": "+7~+8",
      "hit": "KND*",
      "counter_hit": "KND*",
      "tag": "fnddf3 cd3",
      "notes": "W!, WB!, *Guaranteed ff2 near wall",
      "index": "52"
    },
    {
      "attack_command": "f, n, d, D/F+3",
      "attack_name": "Jumping Low Kick",
      "jp_command": "652[3]LK",
      "jp_name": "地斬脚",
      "property": "l(TJ)",
      "damage": "24",
      "startup": "i33~34 (37~) js5~28",
      "block": "-23~-22",
      "hit": "KND*",
      "counter_hit": "KND*",
      "tag": "fnddf3 cd3",
      "notes": "*Guaranteed ff2 followup\nS2: Guaranteed followup",
      "index": "53"
    },
    {
      "attack_command": "f, n, d, d/f+4",
      "attack_name": "Hell Sweep",
      "jp_command": "6523RK",
      "jp_name": "奈落払い(1)",
      "property": "l(HS)",
      "damage": "15",
      "startup": "i16~17 (19~)",
      "block": "-23",
      "hit": "+5s~+6s",
      "counter_hit": "LNC",
      "tag": "fnddf4 hs cd4",
      "notes": "S3: Closer on hit",
      "index": "54a"
    },
    {
      "attack_command": "f, n, d, D/F+4, 4",
      "attack_name": "Spinning Demon (2)",
      "jp_command": "652[3]RK, RK",
      "jp_name": "奈落払い(2)",
      "property": "l, l(HS)",
      "damage": "15,10",
      "startup": "i16~17 (19~)",
      "block": "-10",
      "hit": "LNC",
      "counter_hit": "LNC",
      "tag": "fnddf44 cd44 hs4",
      "notes": "S3: Closer on hit, Block -11 → -13",
      "index": "56a"
    },
    {
      "attack_command": "f, n, d, D/F+4, 4 (Single hit)",
      "attack_name": "Spinning Demon (2)",
      "jp_command": "6523RK, RK (Single hit)",
      "jp_name": "奈落払い(2)",
      "property": "l, l(HS)",
      "damage": "15,10",
      "startup": "i16~17 (19~)",
      "block": "-10",
      "hit": "+3s",
      "counter_hit": "LNC",
      "tag": "fnddf44 (single hit) cd44 hs4",
      "notes": "S3: Closer on hit, Block -11 → -13",
      "index": "56b"
    },
    {
      "attack_command": "f, n, d, D/F+4, 4, 4",
      "attack_name": "Spinning Demon",
      "jp_command": "6523RK, RK, RK",
      "jp_name": "奈落払い",
      "property": "l, l, l(HS)",
      "damage": "15,10,8",
      "startup": "i16~17 (19~)",
      "block": "-10",
      "hit": "LNC",
      "counter_hit": "LNC",
      "tag": "fnddf444 cd444 hs44",
      "notes": "S3: Closer on hit, Block -11 → -13",
      "index": "56"
    },
    {
      "attack_command": "f, n, d, D/F+4, 4, 4 (Single hit)",
      "attack_name": "Spinning Demon",
      "jp_command": "6523RK, RK, RK (Single hit)",
      "jp_name": "奈落払い",
      "property": "l, l, l(HS)",
      "damage": "15,10,8",
      "startup": "i16~17 (19~)",
      "block": "-10",
      "hit": "+3s",
      "counter_hit": "LNC",
      "tag": "fnddf444 (single hit) cd444 hs44",
      "notes": "S3: Closer on hit, Block -11 → -13",
      "index": "56c"
    },
    {
      "attack_command": "f, n, d, d/f+4, 1\nf, n, d, D/F+4, 4, 1\nf, n, d, D/F+4, 4, 4, 1",
      "attack_name": "Spin Demon Uppercut",
      "jp_command": "HS 5LP",
      "jp_name": "奈落払い雷神拳",
      "property": "m(HS)",
      "damage": "20",
      "startup": "iar28~",
      "block": "-15~-14",
      "hit": "LNC",
      "counter_hit": "LNC",
      "tag": "hsn1 cd41 cd4n1 fnddf4 fnddf4n1",
      "notes": "S2: Block -12 → -15, Recovery on hit increased 3F\nS3: Increased range",
      "index": "55"
    },
    {
      "attack_command": "f, n, d, d/f+4, n, 4\nf, n, d, D/F+4, 4, n, 4\nf, n, d, D/F+4, 4, 4, n, 4\nf, n, d, d/f, n, 4",
      "attack_name": "Tsunami Kick (1)",
      "jp_command": "HS 5RK",
      "jp_name": "奈落払い踵切り(1)",
      "property": "m(HS)",
      "damage": "10",
      "startup": "i28~",
      "block": "-3~-2",
      "hit": "+8~+9",
      "counter_hit": "+8~+9",
      "tag": "hsn4 cd4n4 fnddf4n4",
      "notes": "-",
      "index": "55a"
    },
    {
      "attack_command": "f, n, d, d/f+4, n, 4, 4\nf, n, d, D/F+4, 4, n, 4, 4\nf, n, d, D/F+4, 4, 4, n, 4, 4\nf, n, d, d/f, n, 4, 4",
      "attack_name": "Tsunami Kick",
      "jp_command": "HS 5RK, RK",
      "jp_name": "奈落払い踵切り",
      "property": "m, m(HS)",
      "damage": "10,20",
      "startup": "i28~",
      "block": "-16~-15",
      "hit": "-5s~-4s",
      "counter_hit": "-5s~-4s",
      "tag": "hsn44 cd4n44 fnddf4n44",
      "notes": "NC, FB!",
      "index": "55"
    },
    {
      "attack_command": "f, f, n, 2, 1, 2, 2, 3, 4, 4, 1, 2, 1",
      "attack_name": "10 Hit Combo 1",
      "jp_command": "665RP, LP, RP, RP, LK, RK, RK, LP, RP, LP",
      "jp_name": "10連コンボ1",
      "property": "h, h, h, h, h, m, l, h, m, m",
      "damage": "7, 8, 6, 7, 6, 11, 5, 5, 8, 30",
      "startup": "i12~",
      "block": "-10, -10, -10, -24, -25, -19, -25, -10, -13, -25",
      "hit": "-1, +1, +1, -13, +5, -19s, -14, +1, -2, LNC",
      "counter_hit": "-1, +1, +1, -13, +5, -19s, -14, +1, -2, LNC",
      "tag": "ffn2122344121 string",
      "notes": "-",
      "index": "67"
    },
    {
      "attack_command": "d/f+3, 2, 2, 4, 4, 1, 4, 1, 2, 4",
      "attack_name": "10 Hit Combo 2",
      "jp_command": "3LK, RP, RP, RK, RK, LP, RK, LP, RP, RK",
      "jp_name": "10連コンボ2",
      "property": "m, h, h, l, l, m, h, h, m, m",
      "damage": "17. 5. 6. 8. 8. 5. 10, 5, 6, 35",
      "startup": "i17~",
      "block": "-7, -10, -24, -27, -27, -12, -25, -10, -17, -3",
      "hit": "-1, +1, +1, -13, +5, -19s, -14, +1, -2, LNC",
      "counter_hit": "-1, +1, +1, -13, +5, -19s, -14, +1, -2, LNC",
      "tag": "df3224414124 string",
      "notes": "-",
      "index": "68"
    },
    {
      "attack_command": "d/f+3, 2, 2, 4, 4, 1, 2, 1, 2, 1",
      "attack_name": "10 Hit Combo 3",
      "jp_command": "3LK, RP, RP, RK, RK, LP, RP, LP, RP, LP",
      "jp_name": "10連コンボ3",
      "property": "m, h, h, l, l, m, h, m, m, m",
      "damage": "17, 5, 6, 8, 8, 5, 5, 8, 21, 25",
      "startup": "i17~",
      "block": "-7, -10, -24, -27, -27, -12, -10, -12, -27, -25",
      "hit": "-1, +1, +1, -13, +5, -19s, -14, +1, -2, LNC",
      "counter_hit": "-1, +1, +1, -13, +5, -19s, -14, +1, -2, LNC",
      "tag": "df3224412121 string",
      "notes": "-",
      "index": "69"
    },
    {
      "attack_command": "1+3",
      "attack_name": "Neck Breaker",
      "jp_command": "AL",
      "jp_name": "裸締め",
      "property": "h(Throw)",
      "damage": "35",
      "startup": "i12",
      "block": "-",
      "hit": "Throw(KND)",
      "counter_hit": "-",
      "tag": "1+3 throw",
      "notes": "Escape: 1 or 2 (-3)",
      "index": "70"
    },
    {
      "attack_command": "f+1+3",
      "attack_name": "Neck Breaker",
      "jp_command": "6AL",
      "jp_name": "裸締め",
      "property": "h(Throw)",
      "damage": "35",
      "startup": "i15",
      "block": "-",
      "hit": "Throw(KND)",
      "counter_hit": "-",
      "tag": "f1+3 throw",
      "notes": "Escape: 1 or 2 (-3)",
      "index": "71"
    },
    {
      "attack_command": "2+4",
      "attack_name": "Jumping Powerbomb",
      "jp_command": "AR",
      "jp_name": "金剛落とし",
      "property": "h(Throw)",
      "damage": "35",
      "startup": "i12",
      "block": "-",
      "hit": "Throw(KND)",
      "counter_hit": "-",
      "tag": "2+4 throw",
      "notes": "Escape: 1 or 2 (-3)",
      "index": "72"
    },
    {
      "attack_command": "f+2+4",
      "attack_name": "Jumping Powerbomb",
      "jp_command": "6AR",
      "jp_name": "金剛落とし",
      "property": "h(Throw)",
      "damage": "35",
      "startup": "i15",
      "block": "-",
      "hit": "Throw(KND)",
      "counter_hit": "-",
      "tag": "f2+4 throw",
      "notes": "Escape: 1 or 2 (-3)",
      "index": "73"
    },
    {
      "attack_command": "Grab opponent's left side",
      "attack_name": "Guillotine Chop",
      "jp_command": "Grab opponent's left side",
      "jp_name": "断頭手",
      "property": "h(Throw)",
      "damage": "40",
      "startup": "i12",
      "block": "-",
      "hit": "Throw(KND)",
      "counter_hit": "-",
      "tag": "grab opponent's right side throw",
      "notes": "Escape: 1 (-3F)",
      "index": "74"
    },
    {
      "attack_command": "Grab opponent's right side",
      "attack_name": "Freefall",
      "jp_command": "Grab opponent's right side",
      "jp_name": "奈落",
      "property": "h(Throw)",
      "damage": "46",
      "startup": "i12",
      "block": "-",
      "hit": "Throw(KND)",
      "counter_hit": "-",
      "tag": "grab opponent's right side throw",
      "notes": "Escape: 2 (-3F)",
      "index": "75"
    },
    {
      "attack_command": "Grab opponent's back",
      "attack_name": "Atomic Drop",
      "jp_command": "Grab opponent's back",
      "jp_name": "仁王砕き",
      "property": "h(Throw)",
      "damage": "60",
      "startup": "i12",
      "block": "-",
      "hit": "Throw(KND)",
      "counter_hit": "-",
      "tag": "grab opponent's back throw",
      "notes": "Cannot escape",
      "index": "76"
    },
    {
      "attack_command": "d/f+2+3",
      "attack_name": "Fire Starter",
      "jp_command": "3RP+LK",
      "jp_name": "火打ち石",
      "property": "h(Throw)",
      "damage": "25",
      "startup": "i12",
      "block": "-",
      "hit": "Throw(+7F)",
      "counter_hit": "-",
      "tag": "df2+3 throw",
      "notes": "Escape: 2 (0F)",
      "index": "77"
    },
    {
      "attack_command": "f, F+1+2",
      "attack_name": "Stonehead",
      "jp_command": "6[6]AP",
      "jp_name": "超ぱちき",
      "property": "h(Throw)",
      "damage": "35(14)",
      "startup": "i12",
      "block": "-",
      "hit": "Throw(KND)",
      "counter_hit": "-",
      "tag": "ff1+2 throw stone head",
      "notes": "Escape: 1+2 (0F)",
      "index": "78"
    },
    {
      "attack_command": "qcf+1+3",
      "attack_name": "Broken Toy",
      "jp_command": "236AL",
      "jp_name": "放宙手",
      "property": "h(Throw)",
      "damage": "45(52)",
      "startup": "i15",
      "block": "-",
      "hit": "Throw(KND)",
      "counter_hit": "-",
      "tag": "qcf1+3 throw",
      "notes": "Escape: 1 (-3F), Ends i50",
      "index": "79"
    },
    {
      "attack_command": "f, F+1+4 (Male only)(Headbutt Carnival)",
      "attack_name": "Headbutt Carnival",
      "jp_command": "6[6]LP+RK (Male only)",
      "jp_name": "ぱちきくらべ",
      "property": "h(Throw)(Headbutt Carnival)",
      "damage": "30",
      "startup": "i11",
      "block": "-",
      "hit": "Throw(KND)",
      "counter_hit": "-",
      "tag": "ff1+4 (male only) headbutt carnival throw unlisted",
      "notes": "Escape: 1+2 (-6F)\n1 or 2 to Headbutt Carnival",
      "index": "-"
    },
    {
      "attack_command": "Headbutt Carnival 1 or 2",
      "attack_name": "Headbutt Carnival 2",
      "jp_command": "Headbutt Carnival LP or RP",
      "jp_name": "ぱちきくらべ",
      "property": "h(Chain throw)",
      "damage": "30(+?*10)",
      "startup": "-",
      "block": "-",
      "hit": "Throw(KND)",
      "counter_hit": "-",
      "tag": "headbutt carnival 1 or headbutt carnival 2 throw unlisted",
      "notes": "Escape: 1 or 2 (0F)\ntake +10 damage per extra hit, loser takes +30",
      "index": "-"
    },
    {
      "attack_command": "b+1+4\nb+2+3",
      "attack_name": "Heaven's Wrath",
      "jp_command": "4LP+RK\n4RP+LK",
      "jp_name": "三島流･金剛壁の構え",
      "property": "(KI)",
      "damage": "-",
      "startup": "i3~30",
      "block": "-",
      "hit": "-",
      "counter_hit": "-",
      "tag": "b2+3 b1+4 throw parry reversal",
      "notes": "Ends i66, Cannot escape",
      "index": "80"
    },
    {
      "attack_command": "b+1+4 (Parry arm)\nb+2+3 (Parry arm)",
      "attack_name": "Heaven's Wrath",
      "jp_command": "4LP+RK (Parry arm)\n4RP+LK (Parry arm)",
      "jp_name": "三島流･金剛壁の構え",
      "property": "(h/m reversal)",
      "damage": "25+50%",
      "startup": "i3~30",
      "block": "-",
      "hit": "Throw(KND)",
      "counter_hit": "-",
      "tag": "b2+3 b1+4 throw parry arms reversal",
      "notes": "Cannot escape",
      "index": "80a"
    },
    {
      "attack_command": "b+1+4 (Parry leg)\nb+2+3 (Parry leg)",
      "attack_name": "Heaven's Wrath",
      "jp_command": "4LP+RK (Parry leg)\n4RP+LK (Parry leg)",
      "jp_name": "三島流･金剛壁の構え",
      "property": "(h/m reversal)",
      "damage": "25+50%",
      "startup": "i3~30",
      "block": "-",
      "hit": "Throw(KND)",
      "counter_hit": "-",
      "tag": "b2+3 b1+4 throw parry legs reversal",
      "notes": "Cannot escape",
      "index": "80b"
    },
    {
      "attack_command": "b+1+4 (Parry body)\nb+2+3 (Parry body)",
      "attack_name": "Heaven's Wrath",
      "jp_command": "4LP+RK (Parry body)\n4RP+LK (Parry body)",
      "jp_name": "三島流･金剛壁の構え",
      "property": "(h/m reversal)",
      "damage": "25+50%",
      "startup": "i3~30",
      "block": "-",
      "hit": "Throw(KND)",
      "counter_hit": "-",
      "tag": "b2+3 b1+4 throw parry body reversal",
      "notes": "Cannot escape",
      "index": "80c"
    },
    {
      "attack_command": "b+1+4 (Parry Yoshimitsu's sword)\nb+2+3 (Parry Yoshimitsu's sword)",
      "attack_name": "Heaven's Wrath",
      "jp_command": "4LP+RK (Parry Yoshimistu's Sword)\n4RP+LK (Parry Yoshimistu's Sword)",
      "jp_name": "三島流･金剛壁の構え",
      "property": "(h/m reversal)",
      "damage": "25+50%",
      "startup": "i3~30",
      "block": "-",
      "hit": "Throw(KND)",
      "counter_hit": "-",
      "tag": "b2+3 b1+4 throw parry yoshimitsu's sword reversal",
      "notes": "Cannot escape",
      "index": "80d"
    }
  ],
  "combo_list": [
    {
      "command": "in rage EWGF OTGF d/f+11 b+12 (S!) RAI 21",
      "jp_command": "",
      "orientation": "forward",
      "size": "All",
      "damage": "25, 26, 5, 3, 4, 6, 6, 6, 28",
      "total_damage": "109",
      "oki": "FDHT flip (Techable)",
      "wall_": "no",
      "tag": "",
      "notes": "RAI 2, 1 needs to be dashed",
      "tags": [
        "EWGF",
        "f, n, d, d/f+2",
        "OTGF",
        "f, n, d/f+1",
        "d/f+1",
        "d/f+1, 1",
        "RAI 2, 1"]
    }
  ],
  "jargon_list": [
    {
      "shorthand": "EWGF",
      "acronym": "Electric Wind God Fist",
      "other_names": "Electric, Electric uppercut",
      "definition": "With Devil Jin/Kazuya/Heihachi perform f, n, d, d/f+2"
    },
    {
      "shorthand": "OTGF",
      "acronym": "Omen Thunder God Fist",
      "other_names": "Blue spark uppercut, Just frame OGF",
      "definition": "With Heihachi perform f, n, d/f+1"
    },
    {
      "shorthand": "WGF",
      "acronym": "Wind God Fist",
      "other_names": "Crouching uppercut",
      "definition": "With Devil Jin/Kazuya/Heihachi perform f, n, d, D/F+1"
    },
    {
      "shorthand": "OGF",
      "acronym": "Omen God Fist",
      "other_names": "Dragon uppercut",
      "definition": "With Heihachi perform f, n, d, d/f+1"
    },
    {
      "shorthand": "OHA",
      "acronym": "Omen Hell Axle",
      "other_names": "Blue spark Hell Axle",
      "definition": "With Heihachi perform Super Charge d, u, u+3\nu/f+3, 4"
    },
    {
      "shorthand": "RAI",
      "acronym": "Raijin Stance",
      "other_names": "-",
      "definition": "With Heihachi perform f+3+4"
    }
  ]
}